ISO-10303-21;
HEADER;
FILE_DESCRIPTION(('STEP AP214'),'1');
FILE_NAME('1812_280','2018-09-27T07:23:30',(''),(''),'','','');
FILE_SCHEMA(('AUTOMOTIVE_DESIGN'));
ENDSEC;
DATA;
#1=SHAPE_DEFINITION_REPRESENTATION(#2,#3);
#2=PRODUCT_DEFINITION_SHAPE('',$,#4);
#3=SHAPE_REPRESENTATION('',(#19,#23),#11);
#4=PRODUCT_DEFINITION('design','example product_definition',#6,#5);
#5=PRODUCT_DEFINITION_CONTEXT('3D Mechanical Parts',#10,'design');
#6=PRODUCT_DEFINITION_FORMATION('1.0','first version',#8);
#7=APPLICATION_PROTOCOL_DEFINITION('international standard','automotive_design',2003,#10);
#8=PRODUCT('product','part','',(#9));
#9=PRODUCT_CONTEXT('3D Mechanical Parts',#10,'mechanical');
#10=APPLICATION_CONTEXT('Core Data for Automotive Mechanical Design Process');
#11=(GEOMETRIC_REPRESENTATION_CONTEXT(3) GLOBAL_UNCERTAINTY_ASSIGNED_CONTEXT((#12)) GLOBAL_UNIT_ASSIGNED_CONTEXT((#13,#14,#18)) REPRESENTATION_CONTEXT('ID1','3D'));
#12=UNCERTAINTY_MEASURE_WITH_UNIT(LENGTH_MEASURE(1.E-006),#13,'DISTANCE_ACCURACY_VALUE','Maximum model space distance between geometric entities at asserted connectivities');
#13=(LENGTH_UNIT() NAMED_UNIT(*) SI_UNIT(.MILLI.,.METRE.));
#14=(CONVERSION_BASED_UNIT('degree',#16) NAMED_UNIT(#15) PLANE_ANGLE_UNIT());
#15=DIMENSIONAL_EXPONENTS(0.,0.,0.,0.,0.,0.,0.);
#16=MEASURE_WITH_UNIT(PLANE_ANGLE_MEASURE(0.01745329252),#17);
#17=(NAMED_UNIT(*) PLANE_ANGLE_UNIT() SI_UNIT($,.RADIAN.));
#18=(NAMED_UNIT(*) SI_UNIT($,.STERADIAN.) SOLID_ANGLE_UNIT());
#19=AXIS2_PLACEMENT_3D('',#20,#21,#22);
#20=CARTESIAN_POINT('',(0.0,0.0,0.0));
#21=DIRECTION('',(0.0,0.0,1.0));
#22=DIRECTION('',(1.0,0.0,0.0));
#23=MANIFOLD_SOLID_BREP($,#24);
#24=CLOSED_SHELL('',(#66,#99,#132,#165,#198,#231,#264,#297,#330,#363,#396,#429,#462,#495,#528,#561,#594,#627,#660,#693,#726,#759,#792,#825,#858,#891,#924,#957,#990,#1023,#1056,#1089,#1122,#1155,#1188,#1221));
#25=MECHANICAL_DESIGN_GEOMETRIC_PRESENTATION_REPRESENTATION($,(#65,#98,#131,#164,#197,#230,#263,#296,#329,#362,#395,#428,#461,#494,#527,#560,#593,#626,#659,#692,#725,#758,#791,#824,#857,#890,#923,#956,#989,#1022,#1055,#1088,#1121,#1154,#1187,#1220),#11);
#26=PRODUCT_CATEGORY_RELATIONSHIP('','',#27,#28);
#27=PRODUCT_CATEGORY('part','');
#28=PRODUCT_RELATED_PRODUCT_CATEGORY('','',(#8));
#29=PRESENTATION_STYLE_ASSIGNMENT((#30,#35));
#30=SURFACE_STYLE_USAGE(.BOTH.,#31);
#31=SURFACE_SIDE_STYLE('',(#32));
#32=SURFACE_STYLE_FILL_AREA(#33);
#33=FILL_AREA_STYLE('',(#34));
#34=FILL_AREA_STYLE_COLOUR('',#36);
#35=CURVE_STYLE('',#37,POSITIVE_LENGTH_MEASURE(0.1),#36);
#36=COLOUR_RGB('Aluminum',0.725490196078431,0.725490196078431,0.725490196078431);
#37=DRAUGHTING_PRE_DEFINED_CURVE_FONT('continuous');
#38=PRESENTATION_STYLE_ASSIGNMENT((#39,#44));
#39=SURFACE_STYLE_USAGE(.BOTH.,#40);
#40=SURFACE_SIDE_STYLE('',(#41));
#41=SURFACE_STYLE_FILL_AREA(#42);
#42=FILL_AREA_STYLE('',(#43));
#43=FILL_AREA_STYLE_COLOUR('',#45);
#44=CURVE_STYLE('',#46,POSITIVE_LENGTH_MEASURE(0.1),#45);
#45=COLOUR_RGB('Brown',0.458823529411765,0.345098039215686,0.176470588235294);
#46=DRAUGHTING_PRE_DEFINED_CURVE_FONT('continuous');
#47=PRESENTATION_STYLE_ASSIGNMENT((#48,#53));
#48=SURFACE_STYLE_USAGE(.BOTH.,#49);
#49=SURFACE_SIDE_STYLE('',(#50));
#50=SURFACE_STYLE_FILL_AREA(#51);
#51=FILL_AREA_STYLE('',(#52));
#52=FILL_AREA_STYLE_COLOUR('',#54);
#53=CURVE_STYLE('',#55,POSITIVE_LENGTH_MEASURE(0.1),#54);
#54=COLOUR_RGB('Pin1Wrap',0.980392156862745,0.705882352941177,0.176470588235294);
#55=DRAUGHTING_PRE_DEFINED_CURVE_FONT('continuous');
#56=PRESENTATION_STYLE_ASSIGNMENT((#57,#62));
#57=SURFACE_STYLE_USAGE(.BOTH.,#58);
#58=SURFACE_SIDE_STYLE('',(#59));
#59=SURFACE_STYLE_FILL_AREA(#60);
#60=FILL_AREA_STYLE('',(#61));
#61=FILL_AREA_STYLE_COLOUR('',#63);
#62=CURVE_STYLE('',#64,POSITIVE_LENGTH_MEASURE(0.1),#63);
#63=COLOUR_RGB('HeatTab',0.588235294117647,0.588235294117647,0.588235294117647);
#64=DRAUGHTING_PRE_DEFINED_CURVE_FONT('continuous');
#65=STYLED_ITEM('color',(#38),#66);
#66=ADVANCED_FACE('',(#67),#93,.F.);
#67=FACE_OUTER_BOUND('',#68,.T.);
#68=EDGE_LOOP('',(#69,#71,#73));
#69=ORIENTED_EDGE('',*,*,#70,.T.);
#70=EDGE_CURVE('',#75,#77,#79,.T.);
#71=ORIENTED_EDGE('',*,*,#72,.T.);
#72=EDGE_CURVE('',#77,#83,#85,.T.);
#73=ORIENTED_EDGE('',*,*,#74,.T.);
#74=EDGE_CURVE('',#83,#75,#89,.T.);
#75=VERTEX_POINT('',#76);
#76=CARTESIAN_POINT('',(1.7399,-1.778,0.0254));
#77=VERTEX_POINT('',#78);
#78=CARTESIAN_POINT('',(1.7399,-1.778,2.1844));
#79=LINE('',#80,#81);
#80=CARTESIAN_POINT('',(1.7399,-1.778,0.0254));
#81=VECTOR('',#82,1.0);
#82=DIRECTION('',(0.0,0.0,-1.0));
#83=VERTEX_POINT('',#84);
#84=CARTESIAN_POINT('',(1.7399,1.778,2.1844));
#85=LINE('',#86,#87);
#86=CARTESIAN_POINT('',(1.7399,-1.778,2.1844));
#87=VECTOR('',#88,1.0);
#88=DIRECTION('',(0.0,-1.0,0.0));
#89=LINE('',#90,#91);
#90=CARTESIAN_POINT('',(1.7399,1.778,2.1844));
#91=VECTOR('',#92,1.0);
#92=DIRECTION('',(0.0,0.854787515221729,0.518978134241764));
#93=PLANE('',#94);
#94=AXIS2_PLACEMENT_3D('',#95,#96,#97);
#95=CARTESIAN_POINT('',(1.7399,-1.778,2.1844));
#96=DIRECTION('',(-1.0,0.0,0.0));
#97=DIRECTION('',(0.0,-0.854787515221729,-0.518978134241764));
#98=STYLED_ITEM('color',(#38),#99);
#99=ADVANCED_FACE('',(#100),#126,.F.);
#100=FACE_OUTER_BOUND('',#101,.T.);
#101=EDGE_LOOP('',(#102,#104,#106));
#102=ORIENTED_EDGE('',*,*,#103,.T.);
#103=EDGE_CURVE('',#108,#110,#112,.T.);
#104=ORIENTED_EDGE('',*,*,#105,.T.);
#105=EDGE_CURVE('',#110,#116,#118,.T.);
#106=ORIENTED_EDGE('',*,*,#107,.T.);
#107=EDGE_CURVE('',#116,#108,#122,.T.);
#108=VERTEX_POINT('',#109);
#109=CARTESIAN_POINT('',(1.7399,-1.778,0.0254));
#110=VERTEX_POINT('',#111);
#111=CARTESIAN_POINT('',(1.7399,1.778,2.1844));
#112=LINE('',#113,#114);
#113=CARTESIAN_POINT('',(1.7399,-1.778,0.0254));
#114=VECTOR('',#115,1.0);
#115=DIRECTION('',(0.0,-0.854787515221729,-0.518978134241764));
#116=VERTEX_POINT('',#117);
#117=CARTESIAN_POINT('',(1.7399,1.778,0.0254));
#118=LINE('',#119,#120);
#119=CARTESIAN_POINT('',(1.7399,1.778,2.1844));
#120=VECTOR('',#121,1.0);
#121=DIRECTION('',(0.0,0.0,1.0));
#122=LINE('',#123,#124);
#123=CARTESIAN_POINT('',(1.7399,1.778,0.0254));
#124=VECTOR('',#125,1.0);
#125=DIRECTION('',(0.0,1.0,0.0));
#126=PLANE('',#127);
#127=AXIS2_PLACEMENT_3D('',#128,#129,#130);
#128=CARTESIAN_POINT('',(1.7399,1.778,2.1844));
#129=DIRECTION('',(-1.0,0.0,0.0));
#130=DIRECTION('',(0.0,-1.0,0.0));
#131=STYLED_ITEM('color',(#38),#132);
#132=ADVANCED_FACE('',(#133),#159,.F.);
#133=FACE_OUTER_BOUND('',#134,.T.);
#134=EDGE_LOOP('',(#135,#137,#139));
#135=ORIENTED_EDGE('',*,*,#136,.T.);
#136=EDGE_CURVE('',#141,#143,#145,.T.);
#137=ORIENTED_EDGE('',*,*,#138,.T.);
#138=EDGE_CURVE('',#143,#149,#151,.T.);
#139=ORIENTED_EDGE('',*,*,#140,.T.);
#140=EDGE_CURVE('',#149,#141,#155,.T.);
#141=VERTEX_POINT('',#142);
#142=CARTESIAN_POINT('',(-1.7399,1.778,0.0254));
#143=VERTEX_POINT('',#144);
#144=CARTESIAN_POINT('',(-1.7399,1.778,2.1844));
#145=LINE('',#146,#147);
#146=CARTESIAN_POINT('',(-1.7399,1.778,0.0254));
#147=VECTOR('',#148,1.0);
#148=DIRECTION('',(0.0,0.0,-1.0));
#149=VERTEX_POINT('',#150);
#150=CARTESIAN_POINT('',(-1.7399,-1.778,2.1844));
#151=LINE('',#152,#153);
#152=CARTESIAN_POINT('',(-1.7399,1.778,2.1844));
#153=VECTOR('',#154,1.0);
#154=DIRECTION('',(0.0,1.0,0.0));
#155=LINE('',#156,#157);
#156=CARTESIAN_POINT('',(-1.7399,-1.778,2.1844));
#157=VECTOR('',#158,1.0);
#158=DIRECTION('',(0.0,-0.854787515221729,0.518978134241764));
#159=PLANE('',#160);
#160=AXIS2_PLACEMENT_3D('',#161,#162,#163);
#161=CARTESIAN_POINT('',(-1.7399,1.778,2.1844));
#162=DIRECTION('',(1.0,0.0,0.0));
#163=DIRECTION('',(0.0,0.854787515221729,-0.518978134241764));
#164=STYLED_ITEM('color',(#38),#165);
#165=ADVANCED_FACE('',(#166),#192,.F.);
#166=FACE_OUTER_BOUND('',#167,.T.);
#167=EDGE_LOOP('',(#168,#170,#172));
#168=ORIENTED_EDGE('',*,*,#169,.T.);
#169=EDGE_CURVE('',#174,#176,#178,.T.);
#170=ORIENTED_EDGE('',*,*,#171,.T.);
#171=EDGE_CURVE('',#176,#182,#184,.T.);
#172=ORIENTED_EDGE('',*,*,#173,.T.);
#173=EDGE_CURVE('',#182,#174,#188,.T.);
#174=VERTEX_POINT('',#175);
#175=CARTESIAN_POINT('',(-1.7399,1.778,0.0254));
#176=VERTEX_POINT('',#177);
#177=CARTESIAN_POINT('',(-1.7399,-1.778,2.1844));
#178=LINE('',#179,#180);
#179=CARTESIAN_POINT('',(-1.7399,1.778,0.0254));
#180=VECTOR('',#181,1.0);
#181=DIRECTION('',(0.0,0.854787515221729,-0.518978134241764));
#182=VERTEX_POINT('',#183);
#183=CARTESIAN_POINT('',(-1.7399,-1.778,0.0254));
#184=LINE('',#185,#186);
#185=CARTESIAN_POINT('',(-1.7399,-1.778,2.1844));
#186=VECTOR('',#187,1.0);
#187=DIRECTION('',(0.0,0.0,1.0));
#188=LINE('',#189,#190);
#189=CARTESIAN_POINT('',(-1.7399,-1.778,0.0254));
#190=VECTOR('',#191,1.0);
#191=DIRECTION('',(0.0,-1.0,0.0));
#192=PLANE('',#193);
#193=AXIS2_PLACEMENT_3D('',#194,#195,#196);
#194=CARTESIAN_POINT('',(-1.7399,-1.778,2.1844));
#195=DIRECTION('',(1.0,0.0,0.0));
#196=DIRECTION('',(0.0,1.0,0.0));
#197=STYLED_ITEM('color',(#38),#198);
#198=ADVANCED_FACE('',(#199),#225,.F.);
#199=FACE_OUTER_BOUND('',#200,.T.);
#200=EDGE_LOOP('',(#201,#203,#205));
#201=ORIENTED_EDGE('',*,*,#202,.T.);
#202=EDGE_CURVE('',#207,#209,#211,.T.);
#203=ORIENTED_EDGE('',*,*,#204,.T.);
#204=EDGE_CURVE('',#209,#215,#217,.T.);
#205=ORIENTED_EDGE('',*,*,#206,.T.);
#206=EDGE_CURVE('',#215,#207,#221,.T.);
#207=VERTEX_POINT('',#208);
#208=CARTESIAN_POINT('',(-1.7399,-1.778,0.0254));
#209=VERTEX_POINT('',#210);
#210=CARTESIAN_POINT('',(-1.7399,-1.778,2.1844));
#211=LINE('',#212,#213);
#212=CARTESIAN_POINT('',(-1.7399,-1.778,0.0254));
#213=VECTOR('',#214,1.0);
#214=DIRECTION('',(0.0,0.0,-1.0));
#215=VERTEX_POINT('',#216);
#216=CARTESIAN_POINT('',(1.7399,-1.778,2.1844));
#217=LINE('',#218,#219);
#218=CARTESIAN_POINT('',(-1.7399,-1.778,2.1844));
#219=VECTOR('',#220,1.0);
#220=DIRECTION('',(-1.0,0.0,0.0));
#221=LINE('',#222,#223);
#222=CARTESIAN_POINT('',(1.7399,-1.778,2.1844));
#223=VECTOR('',#224,1.0);
#224=DIRECTION('',(0.849735984052956,0.0,0.527208457259133));
#225=PLANE('',#226);
#226=AXIS2_PLACEMENT_3D('',#227,#228,#229);
#227=CARTESIAN_POINT('',(-1.7399,-1.778,2.1844));
#228=DIRECTION('',(0.0,1.0,0.0));
#229=DIRECTION('',(-0.849735984052956,0.0,-0.527208457259133));
#230=STYLED_ITEM('color',(#38),#231);
#231=ADVANCED_FACE('',(#232),#258,.F.);
#232=FACE_OUTER_BOUND('',#233,.T.);
#233=EDGE_LOOP('',(#234,#236,#238));
#234=ORIENTED_EDGE('',*,*,#235,.T.);
#235=EDGE_CURVE('',#240,#242,#244,.T.);
#236=ORIENTED_EDGE('',*,*,#237,.T.);
#237=EDGE_CURVE('',#242,#248,#250,.T.);
#238=ORIENTED_EDGE('',*,*,#239,.T.);
#239=EDGE_CURVE('',#248,#240,#254,.T.);
#240=VERTEX_POINT('',#241);
#241=CARTESIAN_POINT('',(-1.7399,-1.778,0.0254));
#242=VERTEX_POINT('',#243);
#243=CARTESIAN_POINT('',(1.7399,-1.778,2.1844));
#244=LINE('',#245,#246);
#245=CARTESIAN_POINT('',(-1.7399,-1.778,0.0254));
#246=VECTOR('',#247,1.0);
#247=DIRECTION('',(-0.849735984052956,0.0,-0.527208457259133));
#248=VERTEX_POINT('',#249);
#249=CARTESIAN_POINT('',(1.7399,-1.778,0.0254));
#250=LINE('',#251,#252);
#251=CARTESIAN_POINT('',(1.7399,-1.778,2.1844));
#252=VECTOR('',#253,1.0);
#253=DIRECTION('',(0.0,0.0,1.0));
#254=LINE('',#255,#256);
#255=CARTESIAN_POINT('',(1.7399,-1.778,0.0254));
#256=VECTOR('',#257,1.0);
#257=DIRECTION('',(1.0,0.0,0.0));
#258=PLANE('',#259);
#259=AXIS2_PLACEMENT_3D('',#260,#261,#262);
#260=CARTESIAN_POINT('',(1.7399,-1.778,2.1844));
#261=DIRECTION('',(0.0,1.0,0.0));
#262=DIRECTION('',(-1.0,0.0,0.0));
#263=STYLED_ITEM('color',(#38),#264);
#264=ADVANCED_FACE('',(#265),#291,.F.);
#265=FACE_OUTER_BOUND('',#266,.T.);
#266=EDGE_LOOP('',(#267,#269,#271));
#267=ORIENTED_EDGE('',*,*,#268,.T.);
#268=EDGE_CURVE('',#273,#275,#277,.T.);
#269=ORIENTED_EDGE('',*,*,#270,.T.);
#270=EDGE_CURVE('',#275,#281,#283,.T.);
#271=ORIENTED_EDGE('',*,*,#272,.T.);
#272=EDGE_CURVE('',#281,#273,#287,.T.);
#273=VERTEX_POINT('',#274);
#274=CARTESIAN_POINT('',(1.7399,1.778,0.0254));
#275=VERTEX_POINT('',#276);
#276=CARTESIAN_POINT('',(1.7399,1.778,2.1844));
#277=LINE('',#278,#279);
#278=CARTESIAN_POINT('',(1.7399,1.778,0.0254));
#279=VECTOR('',#280,1.0);
#280=DIRECTION('',(0.0,0.0,-1.0));
#281=VERTEX_POINT('',#282);
#282=CARTESIAN_POINT('',(-1.7399,1.778,2.1844));
#283=LINE('',#284,#285);
#284=CARTESIAN_POINT('',(1.7399,1.778,2.1844));
#285=VECTOR('',#286,1.0);
#286=DIRECTION('',(1.0,0.0,0.0));
#287=LINE('',#288,#289);
#288=CARTESIAN_POINT('',(-1.7399,1.778,2.1844));
#289=VECTOR('',#290,1.0);
#290=DIRECTION('',(-0.849735984052956,0.0,0.527208457259133));
#291=PLANE('',#292);
#292=AXIS2_PLACEMENT_3D('',#293,#294,#295);
#293=CARTESIAN_POINT('',(1.7399,1.778,2.1844));
#294=DIRECTION('',(0.0,-1.0,0.0));
#295=DIRECTION('',(0.849735984052956,0.0,-0.527208457259133));
#296=STYLED_ITEM('color',(#38),#297);
#297=ADVANCED_FACE('',(#298),#324,.F.);
#298=FACE_OUTER_BOUND('',#299,.T.);
#299=EDGE_LOOP('',(#300,#302,#304));
#300=ORIENTED_EDGE('',*,*,#301,.T.);
#301=EDGE_CURVE('',#306,#308,#310,.T.);
#302=ORIENTED_EDGE('',*,*,#303,.T.);
#303=EDGE_CURVE('',#308,#314,#316,.T.);
#304=ORIENTED_EDGE('',*,*,#305,.T.);
#305=EDGE_CURVE('',#314,#306,#320,.T.);
#306=VERTEX_POINT('',#307);
#307=CARTESIAN_POINT('',(1.7399,1.778,0.0254));
#308=VERTEX_POINT('',#309);
#309=CARTESIAN_POINT('',(-1.7399,1.778,2.1844));
#310=LINE('',#311,#312);
#311=CARTESIAN_POINT('',(1.7399,1.778,0.0254));
#312=VECTOR('',#313,1.0);
#313=DIRECTION('',(0.849735984052956,0.0,-0.527208457259133));
#314=VERTEX_POINT('',#315);
#315=CARTESIAN_POINT('',(-1.7399,1.778,0.0254));
#316=LINE('',#317,#318);
#317=CARTESIAN_POINT('',(-1.7399,1.778,2.1844));
#318=VECTOR('',#319,1.0);
#319=DIRECTION('',(0.0,0.0,1.0));
#320=LINE('',#321,#322);
#321=CARTESIAN_POINT('',(-1.7399,1.778,0.0254));
#322=VECTOR('',#323,1.0);
#323=DIRECTION('',(-1.0,0.0,0.0));
#324=PLANE('',#325);
#325=AXIS2_PLACEMENT_3D('',#326,#327,#328);
#326=CARTESIAN_POINT('',(-1.7399,1.778,2.1844));
#327=DIRECTION('',(0.0,-1.0,0.0));
#328=DIRECTION('',(1.0,0.0,0.0));
#329=STYLED_ITEM('color',(#38),#330);
#330=ADVANCED_FACE('',(#331),#357,.F.);
#331=FACE_OUTER_BOUND('',#332,.T.);
#332=EDGE_LOOP('',(#333,#335,#337));
#333=ORIENTED_EDGE('',*,*,#334,.T.);
#334=EDGE_CURVE('',#339,#341,#343,.T.);
#335=ORIENTED_EDGE('',*,*,#336,.T.);
#336=EDGE_CURVE('',#341,#347,#349,.T.);
#337=ORIENTED_EDGE('',*,*,#338,.T.);
#338=EDGE_CURVE('',#347,#339,#353,.T.);
#339=VERTEX_POINT('',#340);
#340=CARTESIAN_POINT('',(1.7399,-1.778,0.0254));
#341=VERTEX_POINT('',#342);
#342=CARTESIAN_POINT('',(1.7399,1.778,0.0254));
#343=LINE('',#344,#345);
#344=CARTESIAN_POINT('',(1.7399,-1.778,0.0254));
#345=VECTOR('',#346,1.0);
#346=DIRECTION('',(0.0,-1.0,0.0));
#347=VERTEX_POINT('',#348);
#348=CARTESIAN_POINT('',(-1.7399,1.778,0.0254));
#349=LINE('',#350,#351);
#350=CARTESIAN_POINT('',(1.7399,1.778,0.0254));
#351=VECTOR('',#352,1.0);
#352=DIRECTION('',(1.0,0.0,0.0));
#353=LINE('',#354,#355);
#354=CARTESIAN_POINT('',(-1.7399,1.778,0.0254));
#355=VECTOR('',#356,1.0);
#356=DIRECTION('',(-0.699407567369969,0.714723061545954,0.0));
#357=PLANE('',#358);
#358=AXIS2_PLACEMENT_3D('',#359,#360,#361);
#359=CARTESIAN_POINT('',(1.7399,1.778,0.0254));
#360=DIRECTION('',(0.0,0.0,1.0));
#361=DIRECTION('',(0.699407567369969,-0.714723061545954,0.0));
#362=STYLED_ITEM('color',(#38),#363);
#363=ADVANCED_FACE('',(#364),#390,.F.);
#364=FACE_OUTER_BOUND('',#365,.T.);
#365=EDGE_LOOP('',(#366,#368,#370));
#366=ORIENTED_EDGE('',*,*,#367,.T.);
#367=EDGE_CURVE('',#372,#374,#376,.T.);
#368=ORIENTED_EDGE('',*,*,#369,.T.);
#369=EDGE_CURVE('',#374,#380,#382,.T.);
#370=ORIENTED_EDGE('',*,*,#371,.T.);
#371=EDGE_CURVE('',#380,#372,#386,.T.);
#372=VERTEX_POINT('',#373);
#373=CARTESIAN_POINT('',(1.7399,-1.778,0.0254));
#374=VERTEX_POINT('',#375);
#375=CARTESIAN_POINT('',(-1.7399,1.778,0.0254));
#376=LINE('',#377,#378);
#377=CARTESIAN_POINT('',(1.7399,-1.778,0.0254));
#378=VECTOR('',#379,1.0);
#379=DIRECTION('',(0.699407567369969,-0.714723061545954,0.0));
#380=VERTEX_POINT('',#381);
#381=CARTESIAN_POINT('',(-1.7399,-1.778,0.0254));
#382=LINE('',#383,#384);
#383=CARTESIAN_POINT('',(-1.7399,1.778,0.0254));
#384=VECTOR('',#385,1.0);
#385=DIRECTION('',(0.0,1.0,0.0));
#386=LINE('',#387,#388);
#387=CARTESIAN_POINT('',(-1.7399,-1.778,0.0254));
#388=VECTOR('',#389,1.0);
#389=DIRECTION('',(-1.0,0.0,0.0));
#390=PLANE('',#391);
#391=AXIS2_PLACEMENT_3D('',#392,#393,#394);
#392=CARTESIAN_POINT('',(-1.7399,1.778,0.0254));
#393=DIRECTION('',(0.0,0.0,1.0));
#394=DIRECTION('',(1.0,0.0,0.0));
#395=STYLED_ITEM('color',(#38),#396);
#396=ADVANCED_FACE('',(#397),#423,.F.);
#397=FACE_OUTER_BOUND('',#398,.T.);
#398=EDGE_LOOP('',(#399,#401,#403));
#399=ORIENTED_EDGE('',*,*,#400,.T.);
#400=EDGE_CURVE('',#405,#407,#409,.T.);
#401=ORIENTED_EDGE('',*,*,#402,.T.);
#402=EDGE_CURVE('',#407,#413,#415,.T.);
#403=ORIENTED_EDGE('',*,*,#404,.T.);
#404=EDGE_CURVE('',#413,#405,#419,.T.);
#405=VERTEX_POINT('',#406);
#406=CARTESIAN_POINT('',(1.7399,-1.778,2.1844));
#407=VERTEX_POINT('',#408);
#408=CARTESIAN_POINT('',(-1.7399,1.778,2.1844));
#409=LINE('',#410,#411);
#410=CARTESIAN_POINT('',(1.7399,-1.778,2.1844));
#411=VECTOR('',#412,1.0);
#412=DIRECTION('',(0.699407567369969,-0.714723061545954,0.0));
#413=VERTEX_POINT('',#414);
#414=CARTESIAN_POINT('',(1.7399,1.778,2.1844));
#415=LINE('',#416,#417);
#416=CARTESIAN_POINT('',(-1.7399,1.778,2.1844));
#417=VECTOR('',#418,1.0);
#418=DIRECTION('',(-1.0,0.0,0.0));
#419=LINE('',#420,#421);
#420=CARTESIAN_POINT('',(1.7399,1.778,2.1844));
#421=VECTOR('',#422,1.0);
#422=DIRECTION('',(0.0,1.0,0.0));
#423=PLANE('',#424);
#424=AXIS2_PLACEMENT_3D('',#425,#426,#427);
#425=CARTESIAN_POINT('',(-1.7399,1.778,2.1844));
#426=DIRECTION('',(0.0,0.0,-1.0));
#427=DIRECTION('',(0.0,-1.0,0.0));
#428=STYLED_ITEM('color',(#38),#429);
#429=ADVANCED_FACE('',(#430),#456,.F.);
#430=FACE_OUTER_BOUND('',#431,.T.);
#431=EDGE_LOOP('',(#432,#434,#436));
#432=ORIENTED_EDGE('',*,*,#433,.T.);
#433=EDGE_CURVE('',#438,#440,#442,.T.);
#434=ORIENTED_EDGE('',*,*,#435,.T.);
#435=EDGE_CURVE('',#440,#446,#448,.T.);
#436=ORIENTED_EDGE('',*,*,#437,.T.);
#437=EDGE_CURVE('',#446,#438,#452,.T.);
#438=VERTEX_POINT('',#439);
#439=CARTESIAN_POINT('',(1.7399,-1.778,2.1844));
#440=VERTEX_POINT('',#441);
#441=CARTESIAN_POINT('',(-1.7399,-1.778,2.1844));
#442=LINE('',#443,#444);
#443=CARTESIAN_POINT('',(1.7399,-1.778,2.1844));
#444=VECTOR('',#445,1.0);
#445=DIRECTION('',(1.0,0.0,0.0));
#446=VERTEX_POINT('',#447);
#447=CARTESIAN_POINT('',(-1.7399,1.778,2.1844));
#448=LINE('',#449,#450);
#449=CARTESIAN_POINT('',(-1.7399,-1.778,2.1844));
#450=VECTOR('',#451,1.0);
#451=DIRECTION('',(0.0,-1.0,0.0));
#452=LINE('',#453,#454);
#453=CARTESIAN_POINT('',(-1.7399,1.778,2.1844));
#454=VECTOR('',#455,1.0);
#455=DIRECTION('',(-0.699407567369969,0.714723061545954,0.0));
#456=PLANE('',#457);
#457=AXIS2_PLACEMENT_3D('',#458,#459,#460);
#458=CARTESIAN_POINT('',(-1.7399,-1.778,2.1844));
#459=DIRECTION('',(0.0,0.0,-1.0));
#460=DIRECTION('',(0.699407567369969,-0.714723061545954,0.0));
#461=STYLED_ITEM('color',(#29),#462);
#462=ADVANCED_FACE('',(#463),#489,.F.);
#463=FACE_OUTER_BOUND('',#464,.T.);
#464=EDGE_LOOP('',(#465,#467,#469));
#465=ORIENTED_EDGE('',*,*,#466,.T.);
#466=EDGE_CURVE('',#471,#473,#475,.T.);
#467=ORIENTED_EDGE('',*,*,#468,.T.);
#468=EDGE_CURVE('',#473,#479,#481,.T.);
#469=ORIENTED_EDGE('',*,*,#470,.T.);
#470=EDGE_CURVE('',#479,#471,#485,.T.);
#471=VERTEX_POINT('',#472);
#472=CARTESIAN_POINT('',(2.4511,-1.8034,0.0));
#473=VERTEX_POINT('',#474);
#474=CARTESIAN_POINT('',(2.4511,-1.8034,2.2098));
#475=LINE('',#476,#477);
#476=CARTESIAN_POINT('',(2.4511,-1.8034,0.0));
#477=VECTOR('',#478,1.0);
#478=DIRECTION('',(0.0,0.0,-1.0));
#479=VERTEX_POINT('',#480);
#480=CARTESIAN_POINT('',(2.4511,1.8034,2.2098));
#481=LINE('',#482,#483);
#482=CARTESIAN_POINT('',(2.4511,-1.8034,2.2098));
#483=VECTOR('',#484,1.0);
#484=DIRECTION('',(0.0,-1.0,0.0));
#485=LINE('',#486,#487);
#486=CARTESIAN_POINT('',(2.4511,1.8034,2.2098));
#487=VECTOR('',#488,1.0);
#488=DIRECTION('',(0.0,0.852687543351665,0.52242124134926));
#489=PLANE('',#490);
#490=AXIS2_PLACEMENT_3D('',#491,#492,#493);
#491=CARTESIAN_POINT('',(2.4511,-1.8034,2.2098));
#492=DIRECTION('',(-1.0,0.0,0.0));
#493=DIRECTION('',(0.0,-0.852687543351665,-0.52242124134926));
#494=STYLED_ITEM('color',(#29),#495);
#495=ADVANCED_FACE('',(#496),#522,.F.);
#496=FACE_OUTER_BOUND('',#497,.T.);
#497=EDGE_LOOP('',(#498,#500,#502));
#498=ORIENTED_EDGE('',*,*,#499,.T.);
#499=EDGE_CURVE('',#504,#506,#508,.T.);
#500=ORIENTED_EDGE('',*,*,#501,.T.);
#501=EDGE_CURVE('',#506,#512,#514,.T.);
#502=ORIENTED_EDGE('',*,*,#503,.T.);
#503=EDGE_CURVE('',#512,#504,#518,.T.);
#504=VERTEX_POINT('',#505);
#505=CARTESIAN_POINT('',(2.4511,-1.8034,0.0));
#506=VERTEX_POINT('',#507);
#507=CARTESIAN_POINT('',(2.4511,1.8034,2.2098));
#508=LINE('',#509,#510);
#509=CARTESIAN_POINT('',(2.4511,-1.8034,0.0));
#510=VECTOR('',#511,1.0);
#511=DIRECTION('',(0.0,-0.852687543351665,-0.52242124134926));
#512=VERTEX_POINT('',#513);
#513=CARTESIAN_POINT('',(2.4511,1.8034,0.0));
#514=LINE('',#515,#516);
#515=CARTESIAN_POINT('',(2.4511,1.8034,2.2098));
#516=VECTOR('',#517,1.0);
#517=DIRECTION('',(0.0,0.0,1.0));
#518=LINE('',#519,#520);
#519=CARTESIAN_POINT('',(2.4511,1.8034,0.0));
#520=VECTOR('',#521,1.0);
#521=DIRECTION('',(0.0,1.0,0.0));
#522=PLANE('',#523);
#523=AXIS2_PLACEMENT_3D('',#524,#525,#526);
#524=CARTESIAN_POINT('',(2.4511,1.8034,2.2098));
#525=DIRECTION('',(-1.0,0.0,0.0));
#526=DIRECTION('',(0.0,-1.0,0.0));
#527=STYLED_ITEM('color',(#29),#528);
#528=ADVANCED_FACE('',(#529),#555,.F.);
#529=FACE_OUTER_BOUND('',#530,.T.);
#530=EDGE_LOOP('',(#531,#533,#535));
#531=ORIENTED_EDGE('',*,*,#532,.T.);
#532=EDGE_CURVE('',#537,#539,#541,.T.);
#533=ORIENTED_EDGE('',*,*,#534,.T.);
#534=EDGE_CURVE('',#539,#545,#547,.T.);
#535=ORIENTED_EDGE('',*,*,#536,.T.);
#536=EDGE_CURVE('',#545,#537,#551,.T.);
#537=VERTEX_POINT('',#538);
#538=CARTESIAN_POINT('',(1.7399,1.8034,0.0));
#539=VERTEX_POINT('',#540);
#540=CARTESIAN_POINT('',(1.7399,1.8034,2.2098));
#541=LINE('',#542,#543);
#542=CARTESIAN_POINT('',(1.7399,1.8034,0.0));
#543=VECTOR('',#544,1.0);
#544=DIRECTION('',(0.0,0.0,-1.0));
#545=VERTEX_POINT('',#546);
#546=CARTESIAN_POINT('',(1.7399,-1.8034,2.2098));
#547=LINE('',#548,#549);
#548=CARTESIAN_POINT('',(1.7399,1.8034,2.2098));
#549=VECTOR('',#550,1.0);
#550=DIRECTION('',(0.0,1.0,0.0));
#551=LINE('',#552,#553);
#552=CARTESIAN_POINT('',(1.7399,-1.8034,2.2098));
#553=VECTOR('',#554,1.0);
#554=DIRECTION('',(0.0,-0.852687543351665,0.52242124134926));
#555=PLANE('',#556);
#556=AXIS2_PLACEMENT_3D('',#557,#558,#559);
#557=CARTESIAN_POINT('',(1.7399,1.8034,2.2098));
#558=DIRECTION('',(1.0,0.0,0.0));
#559=DIRECTION('',(0.0,0.852687543351665,-0.52242124134926));
#560=STYLED_ITEM('color',(#29),#561);
#561=ADVANCED_FACE('',(#562),#588,.F.);
#562=FACE_OUTER_BOUND('',#563,.T.);
#563=EDGE_LOOP('',(#564,#566,#568));
#564=ORIENTED_EDGE('',*,*,#565,.T.);
#565=EDGE_CURVE('',#570,#572,#574,.T.);
#566=ORIENTED_EDGE('',*,*,#567,.T.);
#567=EDGE_CURVE('',#572,#578,#580,.T.);
#568=ORIENTED_EDGE('',*,*,#569,.T.);
#569=EDGE_CURVE('',#578,#570,#584,.T.);
#570=VERTEX_POINT('',#571);
#571=CARTESIAN_POINT('',(1.7399,1.8034,0.0));
#572=VERTEX_POINT('',#573);
#573=CARTESIAN_POINT('',(1.7399,-1.8034,2.2098));
#574=LINE('',#575,#576);
#575=CARTESIAN_POINT('',(1.7399,1.8034,0.0));
#576=VECTOR('',#577,1.0);
#577=DIRECTION('',(0.0,0.852687543351665,-0.52242124134926));
#578=VERTEX_POINT('',#579);
#579=CARTESIAN_POINT('',(1.7399,-1.8034,0.0));
#580=LINE('',#581,#582);
#581=CARTESIAN_POINT('',(1.7399,-1.8034,2.2098));
#582=VECTOR('',#583,1.0);
#583=DIRECTION('',(0.0,0.0,1.0));
#584=LINE('',#585,#586);
#585=CARTESIAN_POINT('',(1.7399,-1.8034,0.0));
#586=VECTOR('',#587,1.0);
#587=DIRECTION('',(0.0,-1.0,0.0));
#588=PLANE('',#589);
#589=AXIS2_PLACEMENT_3D('',#590,#591,#592);
#590=CARTESIAN_POINT('',(1.7399,-1.8034,2.2098));
#591=DIRECTION('',(1.0,0.0,0.0));
#592=DIRECTION('',(0.0,1.0,0.0));
#593=STYLED_ITEM('color',(#29),#594);
#594=ADVANCED_FACE('',(#595),#621,.F.);
#595=FACE_OUTER_BOUND('',#596,.T.);
#596=EDGE_LOOP('',(#597,#599,#601));
#597=ORIENTED_EDGE('',*,*,#598,.T.);
#598=EDGE_CURVE('',#603,#605,#607,.T.);
#599=ORIENTED_EDGE('',*,*,#600,.T.);
#600=EDGE_CURVE('',#605,#611,#613,.T.);
#601=ORIENTED_EDGE('',*,*,#602,.T.);
#602=EDGE_CURVE('',#611,#603,#617,.T.);
#603=VERTEX_POINT('',#604);
#604=CARTESIAN_POINT('',(1.7399,-1.8034,0.0));
#605=VERTEX_POINT('',#606);
#606=CARTESIAN_POINT('',(1.7399,-1.8034,2.2098));
#607=LINE('',#608,#609);
#608=CARTESIAN_POINT('',(1.7399,-1.8034,0.0));
#609=VECTOR('',#610,1.0);
#610=DIRECTION('',(0.0,0.0,-1.0));
#611=VERTEX_POINT('',#612);
#612=CARTESIAN_POINT('',(2.4511,-1.8034,2.2098));
#613=LINE('',#614,#615);
#614=CARTESIAN_POINT('',(1.7399,-1.8034,2.2098));
#615=VECTOR('',#616,1.0);
#616=DIRECTION('',(-1.0,0.0,0.0));
#617=LINE('',#618,#619);
#618=CARTESIAN_POINT('',(2.4511,-1.8034,2.2098));
#619=VECTOR('',#620,1.0);
#620=DIRECTION('',(0.306363336504661,0.0,0.95191465271091));
#621=PLANE('',#622);
#622=AXIS2_PLACEMENT_3D('',#623,#624,#625);
#623=CARTESIAN_POINT('',(1.7399,-1.8034,2.2098));
#624=DIRECTION('',(0.0,1.0,0.0));
#625=DIRECTION('',(-0.306363336504661,0.0,-0.95191465271091));
#626=STYLED_ITEM('color',(#29),#627);
#627=ADVANCED_FACE('',(#628),#654,.F.);
#628=FACE_OUTER_BOUND('',#629,.T.);
#629=EDGE_LOOP('',(#630,#632,#634));
#630=ORIENTED_EDGE('',*,*,#631,.T.);
#631=EDGE_CURVE('',#636,#638,#640,.T.);
#632=ORIENTED_EDGE('',*,*,#633,.T.);
#633=EDGE_CURVE('',#638,#644,#646,.T.);
#634=ORIENTED_EDGE('',*,*,#635,.T.);
#635=EDGE_CURVE('',#644,#636,#650,.T.);
#636=VERTEX_POINT('',#637);
#637=CARTESIAN_POINT('',(1.7399,-1.8034,0.0));
#638=VERTEX_POINT('',#639);
#639=CARTESIAN_POINT('',(2.4511,-1.8034,2.2098));
#640=LINE('',#641,#642);
#641=CARTESIAN_POINT('',(1.7399,-1.8034,0.0));
#642=VECTOR('',#643,1.0);
#643=DIRECTION('',(-0.306363336504661,0.0,-0.95191465271091));
#644=VERTEX_POINT('',#645);
#645=CARTESIAN_POINT('',(2.4511,-1.8034,0.0));
#646=LINE('',#647,#648);
#647=CARTESIAN_POINT('',(2.4511,-1.8034,2.2098));
#648=VECTOR('',#649,1.0);
#649=DIRECTION('',(0.0,0.0,1.0));
#650=LINE('',#651,#652);
#651=CARTESIAN_POINT('',(2.4511,-1.8034,0.0));
#652=VECTOR('',#653,1.0);
#653=DIRECTION('',(1.0,0.0,0.0));
#654=PLANE('',#655);
#655=AXIS2_PLACEMENT_3D('',#656,#657,#658);
#656=CARTESIAN_POINT('',(2.4511,-1.8034,2.2098));
#657=DIRECTION('',(0.0,1.0,0.0));
#658=DIRECTION('',(-1.0,0.0,0.0));
#659=STYLED_ITEM('color',(#29),#660);
#660=ADVANCED_FACE('',(#661),#687,.F.);
#661=FACE_OUTER_BOUND('',#662,.T.);
#662=EDGE_LOOP('',(#663,#665,#667));
#663=ORIENTED_EDGE('',*,*,#664,.T.);
#664=EDGE_CURVE('',#669,#671,#673,.T.);
#665=ORIENTED_EDGE('',*,*,#666,.T.);
#666=EDGE_CURVE('',#671,#677,#679,.T.);
#667=ORIENTED_EDGE('',*,*,#668,.T.);
#668=EDGE_CURVE('',#677,#669,#683,.T.);
#669=VERTEX_POINT('',#670);
#670=CARTESIAN_POINT('',(2.4511,1.8034,0.0));
#671=VERTEX_POINT('',#672);
#672=CARTESIAN_POINT('',(2.4511,1.8034,2.2098));
#673=LINE('',#674,#675);
#674=CARTESIAN_POINT('',(2.4511,1.8034,0.0));
#675=VECTOR('',#676,1.0);
#676=DIRECTION('',(0.0,0.0,-1.0));
#677=VERTEX_POINT('',#678);
#678=CARTESIAN_POINT('',(1.7399,1.8034,2.2098));
#679=LINE('',#680,#681);
#680=CARTESIAN_POINT('',(2.4511,1.8034,2.2098));
#681=VECTOR('',#682,1.0);
#682=DIRECTION('',(1.0,0.0,0.0));
#683=LINE('',#684,#685);
#684=CARTESIAN_POINT('',(1.7399,1.8034,2.2098));
#685=VECTOR('',#686,1.0);
#686=DIRECTION('',(-0.306363336504661,0.0,0.95191465271091));
#687=PLANE('',#688);
#688=AXIS2_PLACEMENT_3D('',#689,#690,#691);
#689=CARTESIAN_POINT('',(2.4511,1.8034,2.2098));
#690=DIRECTION('',(0.0,-1.0,0.0));
#691=DIRECTION('',(0.306363336504661,0.0,-0.95191465271091));
#692=STYLED_ITEM('color',(#29),#693);
#693=ADVANCED_FACE('',(#694),#720,.F.);
#694=FACE_OUTER_BOUND('',#695,.T.);
#695=EDGE_LOOP('',(#696,#698,#700));
#696=ORIENTED_EDGE('',*,*,#697,.T.);
#697=EDGE_CURVE('',#702,#704,#706,.T.);
#698=ORIENTED_EDGE('',*,*,#699,.T.);
#699=EDGE_CURVE('',#704,#710,#712,.T.);
#700=ORIENTED_EDGE('',*,*,#701,.T.);
#701=EDGE_CURVE('',#710,#702,#716,.T.);
#702=VERTEX_POINT('',#703);
#703=CARTESIAN_POINT('',(2.4511,1.8034,0.0));
#704=VERTEX_POINT('',#705);
#705=CARTESIAN_POINT('',(1.7399,1.8034,2.2098));
#706=LINE('',#707,#708);
#707=CARTESIAN_POINT('',(2.4511,1.8034,0.0));
#708=VECTOR('',#709,1.0);
#709=DIRECTION('',(0.306363336504661,0.0,-0.95191465271091));
#710=VERTEX_POINT('',#711);
#711=CARTESIAN_POINT('',(1.7399,1.8034,0.0));
#712=LINE('',#713,#714);
#713=CARTESIAN_POINT('',(1.7399,1.8034,2.2098));
#714=VECTOR('',#715,1.0);
#715=DIRECTION('',(0.0,0.0,1.0));
#716=LINE('',#717,#718);
#717=CARTESIAN_POINT('',(1.7399,1.8034,0.0));
#718=VECTOR('',#719,1.0);
#719=DIRECTION('',(-1.0,0.0,0.0));
#720=PLANE('',#721);
#721=AXIS2_PLACEMENT_3D('',#722,#723,#724);
#722=CARTESIAN_POINT('',(1.7399,1.8034,2.2098));
#723=DIRECTION('',(0.0,-1.0,0.0));
#724=DIRECTION('',(1.0,0.0,0.0));
#725=STYLED_ITEM('color',(#29),#726);
#726=ADVANCED_FACE('',(#727),#753,.F.);
#727=FACE_OUTER_BOUND('',#728,.T.);
#728=EDGE_LOOP('',(#729,#731,#733));
#729=ORIENTED_EDGE('',*,*,#730,.T.);
#730=EDGE_CURVE('',#735,#737,#739,.T.);
#731=ORIENTED_EDGE('',*,*,#732,.T.);
#732=EDGE_CURVE('',#737,#743,#745,.T.);
#733=ORIENTED_EDGE('',*,*,#734,.T.);
#734=EDGE_CURVE('',#743,#735,#749,.T.);
#735=VERTEX_POINT('',#736);
#736=CARTESIAN_POINT('',(2.4511,-1.8034,0.0));
#737=VERTEX_POINT('',#738);
#738=CARTESIAN_POINT('',(2.4511,1.8034,0.0));
#739=LINE('',#740,#741);
#740=CARTESIAN_POINT('',(2.4511,-1.8034,0.0));
#741=VECTOR('',#742,1.0);
#742=DIRECTION('',(0.0,-1.0,0.0));
#743=VERTEX_POINT('',#744);
#744=CARTESIAN_POINT('',(1.7399,1.8034,0.0));
#745=LINE('',#746,#747);
#746=CARTESIAN_POINT('',(2.4511,1.8034,0.0));
#747=VECTOR('',#748,1.0);
#748=DIRECTION('',(1.0,0.0,0.0));
#749=LINE('',#750,#751);
#750=CARTESIAN_POINT('',(1.7399,1.8034,0.0));
#751=VECTOR('',#752,1.0);
#752=DIRECTION('',(-0.193458024532617,0.981108552986843,0.0));
#753=PLANE('',#754);
#754=AXIS2_PLACEMENT_3D('',#755,#756,#757);
#755=CARTESIAN_POINT('',(2.4511,1.8034,0.0));
#756=DIRECTION('',(0.0,0.0,1.0));
#757=DIRECTION('',(0.193458024532617,-0.981108552986843,0.0));
#758=STYLED_ITEM('color',(#29),#759);
#759=ADVANCED_FACE('',(#760),#786,.F.);
#760=FACE_OUTER_BOUND('',#761,.T.);
#761=EDGE_LOOP('',(#762,#764,#766));
#762=ORIENTED_EDGE('',*,*,#763,.T.);
#763=EDGE_CURVE('',#768,#770,#772,.T.);
#764=ORIENTED_EDGE('',*,*,#765,.T.);
#765=EDGE_CURVE('',#770,#776,#778,.T.);
#766=ORIENTED_EDGE('',*,*,#767,.T.);
#767=EDGE_CURVE('',#776,#768,#782,.T.);
#768=VERTEX_POINT('',#769);
#769=CARTESIAN_POINT('',(2.4511,-1.8034,0.0));
#770=VERTEX_POINT('',#771);
#771=CARTESIAN_POINT('',(1.7399,1.8034,0.0));
#772=LINE('',#773,#774);
#773=CARTESIAN_POINT('',(2.4511,-1.8034,0.0));
#774=VECTOR('',#775,1.0);
#775=DIRECTION('',(0.193458024532617,-0.981108552986843,0.0));
#776=VERTEX_POINT('',#777);
#777=CARTESIAN_POINT('',(1.7399,-1.8034,0.0));
#778=LINE('',#779,#780);
#779=CARTESIAN_POINT('',(1.7399,1.8034,0.0));
#780=VECTOR('',#781,1.0);
#781=DIRECTION('',(0.0,1.0,0.0));
#782=LINE('',#783,#784);
#783=CARTESIAN_POINT('',(1.7399,-1.8034,0.0));
#784=VECTOR('',#785,1.0);
#785=DIRECTION('',(-1.0,0.0,0.0));
#786=PLANE('',#787);
#787=AXIS2_PLACEMENT_3D('',#788,#789,#790);
#788=CARTESIAN_POINT('',(1.7399,1.8034,0.0));
#789=DIRECTION('',(0.0,0.0,1.0));
#790=DIRECTION('',(1.0,0.0,0.0));
#791=STYLED_ITEM('color',(#29),#792);
#792=ADVANCED_FACE('',(#793),#819,.F.);
#793=FACE_OUTER_BOUND('',#794,.T.);
#794=EDGE_LOOP('',(#795,#797,#799));
#795=ORIENTED_EDGE('',*,*,#796,.T.);
#796=EDGE_CURVE('',#801,#803,#805,.T.);
#797=ORIENTED_EDGE('',*,*,#798,.T.);
#798=EDGE_CURVE('',#803,#809,#811,.T.);
#799=ORIENTED_EDGE('',*,*,#800,.T.);
#800=EDGE_CURVE('',#809,#801,#815,.T.);
#801=VERTEX_POINT('',#802);
#802=CARTESIAN_POINT('',(2.4511,-1.8034,2.2098));
#803=VERTEX_POINT('',#804);
#804=CARTESIAN_POINT('',(1.7399,1.8034,2.2098));
#805=LINE('',#806,#807);
#806=CARTESIAN_POINT('',(2.4511,-1.8034,2.2098));
#807=VECTOR('',#808,1.0);
#808=DIRECTION('',(0.193458024532617,-0.981108552986843,0.0));
#809=VERTEX_POINT('',#810);
#810=CARTESIAN_POINT('',(2.4511,1.8034,2.2098));
#811=LINE('',#812,#813);
#812=CARTESIAN_POINT('',(1.7399,1.8034,2.2098));
#813=VECTOR('',#814,1.0);
#814=DIRECTION('',(-1.0,0.0,0.0));
#815=LINE('',#816,#817);
#816=CARTESIAN_POINT('',(2.4511,1.8034,2.2098));
#817=VECTOR('',#818,1.0);
#818=DIRECTION('',(0.0,1.0,0.0));
#819=PLANE('',#820);
#820=AXIS2_PLACEMENT_3D('',#821,#822,#823);
#821=CARTESIAN_POINT('',(1.7399,1.8034,2.2098));
#822=DIRECTION('',(0.0,0.0,-1.0));
#823=DIRECTION('',(0.0,-1.0,0.0));
#824=STYLED_ITEM('color',(#29),#825);
#825=ADVANCED_FACE('',(#826),#852,.F.);
#826=FACE_OUTER_BOUND('',#827,.T.);
#827=EDGE_LOOP('',(#828,#830,#832));
#828=ORIENTED_EDGE('',*,*,#829,.T.);
#829=EDGE_CURVE('',#834,#836,#838,.T.);
#830=ORIENTED_EDGE('',*,*,#831,.T.);
#831=EDGE_CURVE('',#836,#842,#844,.T.);
#832=ORIENTED_EDGE('',*,*,#833,.T.);
#833=EDGE_CURVE('',#842,#834,#848,.T.);
#834=VERTEX_POINT('',#835);
#835=CARTESIAN_POINT('',(2.4511,-1.8034,2.2098));
#836=VERTEX_POINT('',#837);
#837=CARTESIAN_POINT('',(1.7399,-1.8034,2.2098));
#838=LINE('',#839,#840);
#839=CARTESIAN_POINT('',(2.4511,-1.8034,2.2098));
#840=VECTOR('',#841,1.0);
#841=DIRECTION('',(1.0,0.0,0.0));
#842=VERTEX_POINT('',#843);
#843=CARTESIAN_POINT('',(1.7399,1.8034,2.2098));
#844=LINE('',#845,#846);
#845=CARTESIAN_POINT('',(1.7399,-1.8034,2.2098));
#846=VECTOR('',#847,1.0);
#847=DIRECTION('',(0.0,-1.0,0.0));
#848=LINE('',#849,#850);
#849=CARTESIAN_POINT('',(1.7399,1.8034,2.2098));
#850=VECTOR('',#851,1.0);
#851=DIRECTION('',(-0.193458024532617,0.981108552986843,0.0));
#852=PLANE('',#853);
#853=AXIS2_PLACEMENT_3D('',#854,#855,#856);
#854=CARTESIAN_POINT('',(1.7399,-1.8034,2.2098));
#855=DIRECTION('',(0.0,0.0,-1.0));
#856=DIRECTION('',(0.193458024532617,-0.981108552986843,0.0));
#857=STYLED_ITEM('color',(#29),#858);
#858=ADVANCED_FACE('',(#859),#885,.F.);
#859=FACE_OUTER_BOUND('',#860,.T.);
#860=EDGE_LOOP('',(#861,#863,#865));
#861=ORIENTED_EDGE('',*,*,#862,.T.);
#862=EDGE_CURVE('',#867,#869,#871,.T.);
#863=ORIENTED_EDGE('',*,*,#864,.T.);
#864=EDGE_CURVE('',#869,#875,#877,.T.);
#865=ORIENTED_EDGE('',*,*,#866,.T.);
#866=EDGE_CURVE('',#875,#867,#881,.T.);
#867=VERTEX_POINT('',#868);
#868=CARTESIAN_POINT('',(-2.4511,1.8034,0.0));
#869=VERTEX_POINT('',#870);
#870=CARTESIAN_POINT('',(-2.4511,1.8034,2.2098));
#871=LINE('',#872,#873);
#872=CARTESIAN_POINT('',(-2.4511,1.8034,0.0));
#873=VECTOR('',#874,1.0);
#874=DIRECTION('',(0.0,0.0,-1.0));
#875=VERTEX_POINT('',#876);
#876=CARTESIAN_POINT('',(-2.4511,-1.8034,2.2098));
#877=LINE('',#878,#879);
#878=CARTESIAN_POINT('',(-2.4511,1.8034,2.2098));
#879=VECTOR('',#880,1.0);
#880=DIRECTION('',(0.0,1.0,0.0));
#881=LINE('',#882,#883);
#882=CARTESIAN_POINT('',(-2.4511,-1.8034,2.2098));
#883=VECTOR('',#884,1.0);
#884=DIRECTION('',(0.0,-0.852687543351665,0.52242124134926));
#885=PLANE('',#886);
#886=AXIS2_PLACEMENT_3D('',#887,#888,#889);
#887=CARTESIAN_POINT('',(-2.4511,1.8034,2.2098));
#888=DIRECTION('',(1.0,0.0,0.0));
#889=DIRECTION('',(0.0,0.852687543351665,-0.52242124134926));
#890=STYLED_ITEM('color',(#29),#891);
#891=ADVANCED_FACE('',(#892),#918,.F.);
#892=FACE_OUTER_BOUND('',#893,.T.);
#893=EDGE_LOOP('',(#894,#896,#898));
#894=ORIENTED_EDGE('',*,*,#895,.T.);
#895=EDGE_CURVE('',#900,#902,#904,.T.);
#896=ORIENTED_EDGE('',*,*,#897,.T.);
#897=EDGE_CURVE('',#902,#908,#910,.T.);
#898=ORIENTED_EDGE('',*,*,#899,.T.);
#899=EDGE_CURVE('',#908,#900,#914,.T.);
#900=VERTEX_POINT('',#901);
#901=CARTESIAN_POINT('',(-2.4511,1.8034,0.0));
#902=VERTEX_POINT('',#903);
#903=CARTESIAN_POINT('',(-2.4511,-1.8034,2.2098));
#904=LINE('',#905,#906);
#905=CARTESIAN_POINT('',(-2.4511,1.8034,0.0));
#906=VECTOR('',#907,1.0);
#907=DIRECTION('',(0.0,0.852687543351665,-0.52242124134926));
#908=VERTEX_POINT('',#909);
#909=CARTESIAN_POINT('',(-2.4511,-1.8034,0.0));
#910=LINE('',#911,#912);
#911=CARTESIAN_POINT('',(-2.4511,-1.8034,2.2098));
#912=VECTOR('',#913,1.0);
#913=DIRECTION('',(0.0,0.0,1.0));
#914=LINE('',#915,#916);
#915=CARTESIAN_POINT('',(-2.4511,-1.8034,0.0));
#916=VECTOR('',#917,1.0);
#917=DIRECTION('',(0.0,-1.0,0.0));
#918=PLANE('',#919);
#919=AXIS2_PLACEMENT_3D('',#920,#921,#922);
#920=CARTESIAN_POINT('',(-2.4511,-1.8034,2.2098));
#921=DIRECTION('',(1.0,0.0,0.0));
#922=DIRECTION('',(0.0,1.0,0.0));
#923=STYLED_ITEM('color',(#29),#924);
#924=ADVANCED_FACE('',(#925),#951,.F.);
#925=FACE_OUTER_BOUND('',#926,.T.);
#926=EDGE_LOOP('',(#927,#929,#931));
#927=ORIENTED_EDGE('',*,*,#928,.T.);
#928=EDGE_CURVE('',#933,#935,#937,.T.);
#929=ORIENTED_EDGE('',*,*,#930,.T.);
#930=EDGE_CURVE('',#935,#941,#943,.T.);
#931=ORIENTED_EDGE('',*,*,#932,.T.);
#932=EDGE_CURVE('',#941,#933,#947,.T.);
#933=VERTEX_POINT('',#934);
#934=CARTESIAN_POINT('',(-1.7399,-1.8034,0.0));
#935=VERTEX_POINT('',#936);
#936=CARTESIAN_POINT('',(-1.7399,-1.8034,2.2098));
#937=LINE('',#938,#939);
#938=CARTESIAN_POINT('',(-1.7399,-1.8034,0.0));
#939=VECTOR('',#940,1.0);
#940=DIRECTION('',(0.0,0.0,-1.0));
#941=VERTEX_POINT('',#942);
#942=CARTESIAN_POINT('',(-1.7399,1.8034,2.2098));
#943=LINE('',#944,#945);
#944=CARTESIAN_POINT('',(-1.7399,-1.8034,2.2098));
#945=VECTOR('',#946,1.0);
#946=DIRECTION('',(0.0,-1.0,0.0));
#947=LINE('',#948,#949);
#948=CARTESIAN_POINT('',(-1.7399,1.8034,2.2098));
#949=VECTOR('',#950,1.0);
#950=DIRECTION('',(0.0,0.852687543351665,0.52242124134926));
#951=PLANE('',#952);
#952=AXIS2_PLACEMENT_3D('',#953,#954,#955);
#953=CARTESIAN_POINT('',(-1.7399,-1.8034,2.2098));
#954=DIRECTION('',(-1.0,0.0,0.0));
#955=DIRECTION('',(0.0,-0.852687543351665,-0.52242124134926));
#956=STYLED_ITEM('color',(#29),#957);
#957=ADVANCED_FACE('',(#958),#984,.F.);
#958=FACE_OUTER_BOUND('',#959,.T.);
#959=EDGE_LOOP('',(#960,#962,#964));
#960=ORIENTED_EDGE('',*,*,#961,.T.);
#961=EDGE_CURVE('',#966,#968,#970,.T.);
#962=ORIENTED_EDGE('',*,*,#963,.T.);
#963=EDGE_CURVE('',#968,#974,#976,.T.);
#964=ORIENTED_EDGE('',*,*,#965,.T.);
#965=EDGE_CURVE('',#974,#966,#980,.T.);
#966=VERTEX_POINT('',#967);
#967=CARTESIAN_POINT('',(-1.7399,-1.8034,0.0));
#968=VERTEX_POINT('',#969);
#969=CARTESIAN_POINT('',(-1.7399,1.8034,2.2098));
#970=LINE('',#971,#972);
#971=CARTESIAN_POINT('',(-1.7399,-1.8034,0.0));
#972=VECTOR('',#973,1.0);
#973=DIRECTION('',(0.0,-0.852687543351665,-0.52242124134926));
#974=VERTEX_POINT('',#975);
#975=CARTESIAN_POINT('',(-1.7399,1.8034,0.0));
#976=LINE('',#977,#978);
#977=CARTESIAN_POINT('',(-1.7399,1.8034,2.2098));
#978=VECTOR('',#979,1.0);
#979=DIRECTION('',(0.0,0.0,1.0));
#980=LINE('',#981,#982);
#981=CARTESIAN_POINT('',(-1.7399,1.8034,0.0));
#982=VECTOR('',#983,1.0);
#983=DIRECTION('',(0.0,1.0,0.0));
#984=PLANE('',#985);
#985=AXIS2_PLACEMENT_3D('',#986,#987,#988);
#986=CARTESIAN_POINT('',(-1.7399,1.8034,2.2098));
#987=DIRECTION('',(-1.0,0.0,0.0));
#988=DIRECTION('',(0.0,-1.0,0.0));
#989=STYLED_ITEM('color',(#29),#990);
#990=ADVANCED_FACE('',(#991),#1017,.F.);
#991=FACE_OUTER_BOUND('',#992,.T.);
#992=EDGE_LOOP('',(#993,#995,#997));
#993=ORIENTED_EDGE('',*,*,#994,.T.);
#994=EDGE_CURVE('',#999,#1001,#1003,.T.);
#995=ORIENTED_EDGE('',*,*,#996,.T.);
#996=EDGE_CURVE('',#1001,#1007,#1009,.T.);
#997=ORIENTED_EDGE('',*,*,#998,.T.);
#998=EDGE_CURVE('',#1007,#999,#1013,.T.);
#999=VERTEX_POINT('',#1000);
#1000=CARTESIAN_POINT('',(-1.7399,1.8034,0.0));
#1001=VERTEX_POINT('',#1002);
#1002=CARTESIAN_POINT('',(-1.7399,1.8034,2.2098));
#1003=LINE('',#1004,#1005);
#1004=CARTESIAN_POINT('',(-1.7399,1.8034,0.0));
#1005=VECTOR('',#1006,1.0);
#1006=DIRECTION('',(0.0,0.0,-1.0));
#1007=VERTEX_POINT('',#1008);
#1008=CARTESIAN_POINT('',(-2.4511,1.8034,2.2098));
#1009=LINE('',#1010,#1011);
#1010=CARTESIAN_POINT('',(-1.7399,1.8034,2.2098));
#1011=VECTOR('',#1012,1.0);
#1012=DIRECTION('',(1.0,0.0,0.0));
#1013=LINE('',#1014,#1015);
#1014=CARTESIAN_POINT('',(-2.4511,1.8034,2.2098));
#1015=VECTOR('',#1016,1.0);
#1016=DIRECTION('',(-0.306363336504661,0.0,0.95191465271091));
#1017=PLANE('',#1018);
#1018=AXIS2_PLACEMENT_3D('',#1019,#1020,#1021);
#1019=CARTESIAN_POINT('',(-1.7399,1.8034,2.2098));
#1020=DIRECTION('',(0.0,-1.0,0.0));
#1021=DIRECTION('',(0.306363336504661,0.0,-0.95191465271091));
#1022=STYLED_ITEM('color',(#29),#1023);
#1023=ADVANCED_FACE('',(#1024),#1050,.F.);
#1024=FACE_OUTER_BOUND('',#1025,.T.);
#1025=EDGE_LOOP('',(#1026,#1028,#1030));
#1026=ORIENTED_EDGE('',*,*,#1027,.T.);
#1027=EDGE_CURVE('',#1032,#1034,#1036,.T.);
#1028=ORIENTED_EDGE('',*,*,#1029,.T.);
#1029=EDGE_CURVE('',#1034,#1040,#1042,.T.);
#1030=ORIENTED_EDGE('',*,*,#1031,.T.);
#1031=EDGE_CURVE('',#1040,#1032,#1046,.T.);
#1032=VERTEX_POINT('',#1033);
#1033=CARTESIAN_POINT('',(-1.7399,1.8034,0.0));
#1034=VERTEX_POINT('',#1035);
#1035=CARTESIAN_POINT('',(-2.4511,1.8034,2.2098));
#1036=LINE('',#1037,#1038);
#1037=CARTESIAN_POINT('',(-1.7399,1.8034,0.0));
#1038=VECTOR('',#1039,1.0);
#1039=DIRECTION('',(0.306363336504661,0.0,-0.95191465271091));
#1040=VERTEX_POINT('',#1041);
#1041=CARTESIAN_POINT('',(-2.4511,1.8034,0.0));
#1042=LINE('',#1043,#1044);
#1043=CARTESIAN_POINT('',(-2.4511,1.8034,2.2098));
#1044=VECTOR('',#1045,1.0);
#1045=DIRECTION('',(0.0,0.0,1.0));
#1046=LINE('',#1047,#1048);
#1047=CARTESIAN_POINT('',(-2.4511,1.8034,0.0));
#1048=VECTOR('',#1049,1.0);
#1049=DIRECTION('',(-1.0,0.0,0.0));
#1050=PLANE('',#1051);
#1051=AXIS2_PLACEMENT_3D('',#1052,#1053,#1054);
#1052=CARTESIAN_POINT('',(-2.4511,1.8034,2.2098));
#1053=DIRECTION('',(0.0,-1.0,0.0));
#1054=DIRECTION('',(1.0,0.0,0.0));
#1055=STYLED_ITEM('color',(#29),#1056);
#1056=ADVANCED_FACE('',(#1057),#1083,.F.);
#1057=FACE_OUTER_BOUND('',#1058,.T.);
#1058=EDGE_LOOP('',(#1059,#1061,#1063));
#1059=ORIENTED_EDGE('',*,*,#1060,.T.);
#1060=EDGE_CURVE('',#1065,#1067,#1069,.T.);
#1061=ORIENTED_EDGE('',*,*,#1062,.T.);
#1062=EDGE_CURVE('',#1067,#1073,#1075,.T.);
#1063=ORIENTED_EDGE('',*,*,#1064,.T.);
#1064=EDGE_CURVE('',#1073,#1065,#1079,.T.);
#1065=VERTEX_POINT('',#1066);
#1066=CARTESIAN_POINT('',(-2.4511,-1.8034,0.0));
#1067=VERTEX_POINT('',#1068);
#1068=CARTESIAN_POINT('',(-2.4511,-1.8034,2.2098));
#1069=LINE('',#1070,#1071);
#1070=CARTESIAN_POINT('',(-2.4511,-1.8034,0.0));
#1071=VECTOR('',#1072,1.0);
#1072=DIRECTION('',(0.0,0.0,-1.0));
#1073=VERTEX_POINT('',#1074);
#1074=CARTESIAN_POINT('',(-1.7399,-1.8034,2.2098));
#1075=LINE('',#1076,#1077);
#1076=CARTESIAN_POINT('',(-2.4511,-1.8034,2.2098));
#1077=VECTOR('',#1078,1.0);
#1078=DIRECTION('',(-1.0,0.0,0.0));
#1079=LINE('',#1080,#1081);
#1080=CARTESIAN_POINT('',(-1.7399,-1.8034,2.2098));
#1081=VECTOR('',#1082,1.0);
#1082=DIRECTION('',(0.306363336504661,0.0,0.95191465271091));
#1083=PLANE('',#1084);
#1084=AXIS2_PLACEMENT_3D('',#1085,#1086,#1087);
#1085=CARTESIAN_POINT('',(-2.4511,-1.8034,2.2098));
#1086=DIRECTION('',(0.0,1.0,0.0));
#1087=DIRECTION('',(-0.306363336504661,0.0,-0.95191465271091));
#1088=STYLED_ITEM('color',(#29),#1089);
#1089=ADVANCED_FACE('',(#1090),#1116,.F.);
#1090=FACE_OUTER_BOUND('',#1091,.T.);
#1091=EDGE_LOOP('',(#1092,#1094,#1096));
#1092=ORIENTED_EDGE('',*,*,#1093,.T.);
#1093=EDGE_CURVE('',#1098,#1100,#1102,.T.);
#1094=ORIENTED_EDGE('',*,*,#1095,.T.);
#1095=EDGE_CURVE('',#1100,#1106,#1108,.T.);
#1096=ORIENTED_EDGE('',*,*,#1097,.T.);
#1097=EDGE_CURVE('',#1106,#1098,#1112,.T.);
#1098=VERTEX_POINT('',#1099);
#1099=CARTESIAN_POINT('',(-2.4511,-1.8034,0.0));
#1100=VERTEX_POINT('',#1101);
#1101=CARTESIAN_POINT('',(-1.7399,-1.8034,2.2098));
#1102=LINE('',#1103,#1104);
#1103=CARTESIAN_POINT('',(-2.4511,-1.8034,0.0));
#1104=VECTOR('',#1105,1.0);
#1105=DIRECTION('',(-0.306363336504661,0.0,-0.95191465271091));
#1106=VERTEX_POINT('',#1107);
#1107=CARTESIAN_POINT('',(-1.7399,-1.8034,0.0));
#1108=LINE('',#1109,#1110);
#1109=CARTESIAN_POINT('',(-1.7399,-1.8034,2.2098));
#1110=VECTOR('',#1111,1.0);
#1111=DIRECTION('',(0.0,0.0,1.0));
#1112=LINE('',#1113,#1114);
#1113=CARTESIAN_POINT('',(-1.7399,-1.8034,0.0));
#1114=VECTOR('',#1115,1.0);
#1115=DIRECTION('',(1.0,0.0,0.0));
#1116=PLANE('',#1117);
#1117=AXIS2_PLACEMENT_3D('',#1118,#1119,#1120);
#1118=CARTESIAN_POINT('',(-1.7399,-1.8034,2.2098));
#1119=DIRECTION('',(0.0,1.0,0.0));
#1120=DIRECTION('',(-1.0,0.0,0.0));
#1121=STYLED_ITEM('color',(#29),#1122);
#1122=ADVANCED_FACE('',(#1123),#1149,.F.);
#1123=FACE_OUTER_BOUND('',#1124,.T.);
#1124=EDGE_LOOP('',(#1125,#1127,#1129));
#1125=ORIENTED_EDGE('',*,*,#1126,.T.);
#1126=EDGE_CURVE('',#1131,#1133,#1135,.T.);
#1127=ORIENTED_EDGE('',*,*,#1128,.T.);
#1128=EDGE_CURVE('',#1133,#1139,#1141,.T.);
#1129=ORIENTED_EDGE('',*,*,#1130,.T.);
#1130=EDGE_CURVE('',#1139,#1131,#1145,.T.);
#1131=VERTEX_POINT('',#1132);
#1132=CARTESIAN_POINT('',(-2.4511,1.8034,0.0));
#1133=VERTEX_POINT('',#1134);
#1134=CARTESIAN_POINT('',(-2.4511,-1.8034,0.0));
#1135=LINE('',#1136,#1137);
#1136=CARTESIAN_POINT('',(-2.4511,1.8034,0.0));
#1137=VECTOR('',#1138,1.0);
#1138=DIRECTION('',(0.0,1.0,0.0));
#1139=VERTEX_POINT('',#1140);
#1140=CARTESIAN_POINT('',(-1.7399,-1.8034,0.0));
#1141=LINE('',#1142,#1143);
#1142=CARTESIAN_POINT('',(-2.4511,-1.8034,0.0));
#1143=VECTOR('',#1144,1.0);
#1144=DIRECTION('',(-1.0,0.0,0.0));
#1145=LINE('',#1146,#1147);
#1146=CARTESIAN_POINT('',(-1.7399,-1.8034,0.0));
#1147=VECTOR('',#1148,1.0);
#1148=DIRECTION('',(0.193458024532617,-0.981108552986843,0.0));
#1149=PLANE('',#1150);
#1150=AXIS2_PLACEMENT_3D('',#1151,#1152,#1153);
#1151=CARTESIAN_POINT('',(-2.4511,-1.8034,0.0));
#1152=DIRECTION('',(0.0,0.0,1.0));
#1153=DIRECTION('',(-0.193458024532617,0.981108552986843,0.0));
#1154=STYLED_ITEM('color',(#29),#1155);
#1155=ADVANCED_FACE('',(#1156),#1182,.F.);
#1156=FACE_OUTER_BOUND('',#1157,.T.);
#1157=EDGE_LOOP('',(#1158,#1160,#1162));
#1158=ORIENTED_EDGE('',*,*,#1159,.T.);
#1159=EDGE_CURVE('',#1164,#1166,#1168,.T.);
#1160=ORIENTED_EDGE('',*,*,#1161,.T.);
#1161=EDGE_CURVE('',#1166,#1172,#1174,.T.);
#1162=ORIENTED_EDGE('',*,*,#1163,.T.);
#1163=EDGE_CURVE('',#1172,#1164,#1178,.T.);
#1164=VERTEX_POINT('',#1165);
#1165=CARTESIAN_POINT('',(-2.4511,1.8034,0.0));
#1166=VERTEX_POINT('',#1167);
#1167=CARTESIAN_POINT('',(-1.7399,-1.8034,0.0));
#1168=LINE('',#1169,#1170);
#1169=CARTESIAN_POINT('',(-2.4511,1.8034,0.0));
#1170=VECTOR('',#1171,1.0);
#1171=DIRECTION('',(-0.193458024532617,0.981108552986843,0.0));
#1172=VERTEX_POINT('',#1173);
#1173=CARTESIAN_POINT('',(-1.7399,1.8034,0.0));
#1174=LINE('',#1175,#1176);
#1175=CARTESIAN_POINT('',(-1.7399,-1.8034,0.0));
#1176=VECTOR('',#1177,1.0);
#1177=DIRECTION('',(0.0,-1.0,0.0));
#1178=LINE('',#1179,#1180);
#1179=CARTESIAN_POINT('',(-1.7399,1.8034,0.0));
#1180=VECTOR('',#1181,1.0);
#1181=DIRECTION('',(1.0,0.0,0.0));
#1182=PLANE('',#1183);
#1183=AXIS2_PLACEMENT_3D('',#1184,#1185,#1186);
#1184=CARTESIAN_POINT('',(-1.7399,-1.8034,0.0));
#1185=DIRECTION('',(0.0,0.0,1.0));
#1186=DIRECTION('',(-1.0,0.0,0.0));
#1187=STYLED_ITEM('color',(#29),#1188);
#1188=ADVANCED_FACE('',(#1189),#1215,.F.);
#1189=FACE_OUTER_BOUND('',#1190,.T.);
#1190=EDGE_LOOP('',(#1191,#1193,#1195));
#1191=ORIENTED_EDGE('',*,*,#1192,.T.);
#1192=EDGE_CURVE('',#1197,#1199,#1201,.T.);
#1193=ORIENTED_EDGE('',*,*,#1194,.T.);
#1194=EDGE_CURVE('',#1199,#1205,#1207,.T.);
#1195=ORIENTED_EDGE('',*,*,#1196,.T.);
#1196=EDGE_CURVE('',#1205,#1197,#1211,.T.);
#1197=VERTEX_POINT('',#1198);
#1198=CARTESIAN_POINT('',(-2.4511,1.8034,2.2098));
#1199=VERTEX_POINT('',#1200);
#1200=CARTESIAN_POINT('',(-1.7399,-1.8034,2.2098));
#1201=LINE('',#1202,#1203);
#1202=CARTESIAN_POINT('',(-2.4511,1.8034,2.2098));
#1203=VECTOR('',#1204,1.0);
#1204=DIRECTION('',(-0.193458024532617,0.981108552986843,0.0));
#1205=VERTEX_POINT('',#1206);
#1206=CARTESIAN_POINT('',(-2.4511,-1.8034,2.2098));
#1207=LINE('',#1208,#1209);
#1208=CARTESIAN_POINT('',(-1.7399,-1.8034,2.2098));
#1209=VECTOR('',#1210,1.0);
#1210=DIRECTION('',(1.0,0.0,0.0));
#1211=LINE('',#1212,#1213);
#1212=CARTESIAN_POINT('',(-2.4511,-1.8034,2.2098));
#1213=VECTOR('',#1214,1.0);
#1214=DIRECTION('',(0.0,-1.0,0.0));
#1215=PLANE('',#1216);
#1216=AXIS2_PLACEMENT_3D('',#1217,#1218,#1219);
#1217=CARTESIAN_POINT('',(-1.7399,-1.8034,2.2098));
#1218=DIRECTION('',(0.0,0.0,-1.0));
#1219=DIRECTION('',(0.0,1.0,0.0));
#1220=STYLED_ITEM('color',(#29),#1221);
#1221=ADVANCED_FACE('',(#1222),#1248,.F.);
#1222=FACE_OUTER_BOUND('',#1223,.T.);
#1223=EDGE_LOOP('',(#1224,#1226,#1228));
#1224=ORIENTED_EDGE('',*,*,#1225,.T.);
#1225=EDGE_CURVE('',#1230,#1232,#1234,.T.);
#1226=ORIENTED_EDGE('',*,*,#1227,.T.);
#1227=EDGE_CURVE('',#1232,#1238,#1240,.T.);
#1228=ORIENTED_EDGE('',*,*,#1229,.T.);
#1229=EDGE_CURVE('',#1238,#1230,#1244,.T.);
#1230=VERTEX_POINT('',#1231);
#1231=CARTESIAN_POINT('',(-2.4511,1.8034,2.2098));
#1232=VERTEX_POINT('',#1233);
#1233=CARTESIAN_POINT('',(-1.7399,1.8034,2.2098));
#1234=LINE('',#1235,#1236);
#1235=CARTESIAN_POINT('',(-2.4511,1.8034,2.2098));
#1236=VECTOR('',#1237,1.0);
#1237=DIRECTION('',(-1.0,0.0,0.0));
#1238=VERTEX_POINT('',#1239);
#1239=CARTESIAN_POINT('',(-1.7399,-1.8034,2.2098));
#1240=LINE('',#1241,#1242);
#1241=CARTESIAN_POINT('',(-1.7399,1.8034,2.2098));
#1242=VECTOR('',#1243,1.0);
#1243=DIRECTION('',(0.0,1.0,0.0));
#1244=LINE('',#1245,#1246);
#1245=CARTESIAN_POINT('',(-1.7399,-1.8034,2.2098));
#1246=VECTOR('',#1247,1.0);
#1247=DIRECTION('',(0.193458024532617,-0.981108552986843,0.0));
#1248=PLANE('',#1249);
#1249=AXIS2_PLACEMENT_3D('',#1250,#1251,#1252);
#1250=CARTESIAN_POINT('',(-1.7399,1.8034,2.2098));
#1251=DIRECTION('',(0.0,0.0,-1.0));
#1252=DIRECTION('',(-0.193458024532617,0.981108552986843,0.0));
ENDSEC;
END-ISO-10303-21;
